…
`mboost` provides a `survFit()` function for predicting survival functions, but there is no explicit time argument:


```r
glmb_surv1 <- survFit(glmb_mod, test_pred) %>%
  {.[c("time","surv")]} %>%
  do.call("cbind", .) %>%
  as_tibble()
glmb_surv1
```

```
# A tibble: 107 x 3
    time   `1`   `2`
   <dbl> <dbl> <dbl>
 1 0.435 0.997 0.984
 2 0.537 0.993 0.967
 3 0.603 0.989 0.951
 4 0.635 0.986 0.935
 5 0.776 0.982 0.919
 6 0.822 0.979 0.903
 7 0.900 0.975 0.887
 8 0.926 0.972 0.872
 9 1.08  0.968 0.856
10 1.09  0.965 0.841
# … with 97 more rows
```
…
